module gitlab.com/content-management-services/content-service

go 1.12

require (
	github.com/bxcodec/faker/v3 v3.6.0
	github.com/dgrijalva/jwt-go v3.2.0+incompatible
	github.com/getsentry/sentry-go v0.11.0
	github.com/go-playground/locales v0.12.1 // indirect
	github.com/go-playground/universal-translator v0.16.0 // indirect
	github.com/go-sql-driver/mysql v1.3.0
	github.com/labstack/echo/v4 v4.4.0
	github.com/sirupsen/logrus v1.0.5
	github.com/spf13/viper v1.8.1
	github.com/stretchr/testify v1.7.0
	golang.org/x/sync v0.0.0-20210220032951-036812b2e83c
	gopkg.in/DATA-DOG/go-sqlmock.v1 v1.3.0
	gopkg.in/airbrake/gobrake.v2 v2.0.9 // indirect
	gopkg.in/gemnasium/logrus-airbrake-hook.v2 v2.1.2 // indirect
	gopkg.in/go-playground/validator.v9 v9.15.0
)
